{
  "project_info": {
    "project_number": "621438221660",
    "firebase_url": "https://condohome-ca10d.firebaseio.com",
    "project_id": "condohome-ca10d",
    "storage_bucket": "condohome-ca10d.appspot.com"
  },
  "client": [
    {
      "client_info": {
        "mobilesdk_app_id": "1:621438221660:android:eb9d4dc2b7a9db810c5599",
        "android_client_info": {
          "package_name": "mx.app.condohome"
        }
      },
      "oauth_client": [
        {
          "client_id": "621438221660-lobld07h2cmd05jltde6inoq2ddrlrcr.apps.googleusercontent.com",
          "client_type": 3
        }
      ],
      "api_key": [
        {
          "current_key": "AIzaSyDojkjuNK1AETnSeSxGiQnG-REbgtZoIxc"
        }
      ],
      "services": {
        "appinvite_service": {
          "other_platform_oauth_client": [
            {
              "client_id": "621438221660-lobld07h2cmd05jltde6inoq2ddrlrcr.apps.googleusercontent.com",
              "client_type": 3
            }
          ]
        }
      }
    }
  ],
  "configuration_version": "1"
}